<define-tag pagetitle>DSA-4702-1 thunderbird</define-tag>
<define-tag report_date>2020-6-11</define-tag>
<define-tag secrefs>CVE-2020-12410 CVE-2020-12406 CVE-2020-12405 CVE-2020-12399 CVE-2020-12398</define-tag>
<define-tag packages>thunderbird</define-tag>
<define-tag isvulnerable>yes</define-tag>
<define-tag fixed>yes</define-tag>
<define-tag fixed-section>no</define-tag>

#use wml::debian::security



</dl>
