<define-tag pagetitle>DSA-4766-1 rails</define-tag>
<define-tag report_date>2020-9-24</define-tag>
<define-tag secrefs>CVE-2020-8162 CVE-2020-8164 CVE-2020-8165 CVE-2020-8166 CVE-2020-8167 CVE-2020-15169</define-tag>
<define-tag packages>rails</define-tag>
<define-tag isvulnerable>yes</define-tag>
<define-tag fixed>yes</define-tag>
<define-tag fixed-section>no</define-tag>

#use wml::debian::security



</dl>
