<define-tag pagetitle>DSA-4724-1 webkit2gtk</define-tag>
<define-tag report_date>2020-7-15</define-tag>
<define-tag secrefs>CVE-2020-9802 CVE-2020-9803 CVE-2020-9805 CVE-2020-9806 CVE-2020-9807 CVE-2020-9843 CVE-2020-9850 CVE-2020-13753</define-tag>
<define-tag packages>webkit2gtk</define-tag>
<define-tag isvulnerable>yes</define-tag>
<define-tag fixed>yes</define-tag>
<define-tag fixed-section>no</define-tag>

#use wml::debian::security



</dl>
