<define-tag pagetitle>DSA-4705-1 python-django</define-tag>
<define-tag report_date>2020-6-18</define-tag>
<define-tag secrefs>CVE-2020-9402 CVE-2020-13254 CVE-2020-13596</define-tag>
<define-tag packages>python-django</define-tag>
<define-tag isvulnerable>yes</define-tag>
<define-tag fixed>yes</define-tag>
<define-tag fixed-section>no</define-tag>

#use wml::debian::security



</dl>
