<define-tag pagetitle>DSA-4717-1 php7.0</define-tag>
<define-tag report_date>2020-7-05</define-tag>
<define-tag secrefs>CVE-2019-11048 CVE-2020-7062 CVE-2020-7063 CVE-2020-7064 CVE-2020-7066 CVE-2020-7067</define-tag>
<define-tag packages>php7.0</define-tag>
<define-tag isvulnerable>yes</define-tag>
<define-tag fixed>yes</define-tag>
<define-tag fixed-section>no</define-tag>

#use wml::debian::security



</dl>
