<define-tag pagetitle>DLA-1216-1 wordpress</define-tag>
<define-tag report_date>2017-12-21</define-tag>
<define-tag secrefs>CVE-2017-17091 CVE-2017-17092 CVE-2017-17093 CVE-2017-17094 Bug#883314</define-tag>
<define-tag packages>wordpress</define-tag>
<define-tag isvulnerable>yes</define-tag>
<define-tag fixed>yes</define-tag>
<define-tag fixed-section>no</define-tag>

#use wml::debian::security

