<define-tag pagetitle>DLA-893-1 bouncycastle</define-tag>
<define-tag report_date>2017-4-10</define-tag>
<define-tag secrefs>CVE-2015-6644</define-tag>
<define-tag packages>bouncycastle</define-tag>
<define-tag isvulnerable>yes</define-tag>
<define-tag fixed>yes</define-tag>
<define-tag fixed-section>no</define-tag>

#use wml::debian::security

