<define-tag pagetitle>DLA-2328-1 dovecot</define-tag>
<define-tag report_date>2020-08-15</define-tag>
<define-tag secrefs>CVE-2020-12100 CVE-2020-12673 CVE-2020-12674 Bug#968302</define-tag>
<define-tag packages>dovecot</define-tag>
<define-tag isvulnerable>yes</define-tag>
<define-tag fixed>yes</define-tag>
<define-tag fixed-section>no</define-tag>

#use wml::debian::security

