<define-tag pagetitle>DLA-2068-1 linux</define-tag>
<define-tag report_date>2020-01-18</define-tag>
<define-tag secrefs>CVE-2019-2215 CVE-2019-10220 CVE-2019-14895 CVE-2019-14896 CVE-2019-14897 CVE-2019-14901 CVE-2019-15098 CVE-2019-15217 CVE-2019-15291 CVE-2019-15505 CVE-2019-16746 CVE-2019-17052 CVE-2019-17053 CVE-2019-17054 CVE-2019-17055 CVE-2019-17056 CVE-2019-17133 CVE-2019-17666 CVE-2019-19051 CVE-2019-19052 CVE-2019-19056 CVE-2019-19057 CVE-2019-19062 CVE-2019-19066 CVE-2019-19227 CVE-2019-19332 CVE-2019-19523 CVE-2019-19524 CVE-2019-19527 CVE-2019-19530 CVE-2019-19531 CVE-2019-19532 CVE-2019-19533 CVE-2019-19534 CVE-2019-19536 CVE-2019-19537 CVE-2019-19767 CVE-2019-19922 CVE-2019-19947 CVE-2019-19965 CVE-2019-19966</define-tag>
<define-tag packages>linux</define-tag>
<define-tag isvulnerable>yes</define-tag>
<define-tag fixed>yes</define-tag>
<define-tag fixed-section>no</define-tag>

#use wml::debian::security

