<define-tag pagetitle>DLA-1623-1 tar</define-tag>
<define-tag report_date>2018-12-31</define-tag>
<define-tag secrefs>CVE-2018-20482 Bug##917377</define-tag>
<define-tag packages>tar</define-tag>
<define-tag isvulnerable>yes</define-tag>
<define-tag fixed>yes</define-tag>
<define-tag fixed-section>no</define-tag>

#use wml::debian::security

