<define-tag pagetitle>DLA-1234-2 gdk-pixbuf</define-tag>
<define-tag report_date>2018-1-9</define-tag>
<define-tag secrefs>Bug#886721</define-tag>
<define-tag packages>gdk-pixbuf</define-tag>
<define-tag isvulnerable>yes</define-tag>
<define-tag fixed>yes</define-tag>
<define-tag fixed-section>no</define-tag>

#use wml::debian::security

