<define-tag pagetitle>DLA-1766-1 evolution</define-tag>
<define-tag report_date>2019-04-26</define-tag>
<define-tag secrefs>CVE-2018-15587 Bug#924616</define-tag>
<define-tag packages>evolution</define-tag>
<define-tag isvulnerable>yes</define-tag>
<define-tag fixed>yes</define-tag>
<define-tag fixed-section>no</define-tag>

#use wml::debian::security

