<define-tag pagetitle>DLA-1904-1 libextractor</define-tag>
<define-tag report_date>2019-8-30</define-tag>
<define-tag secrefs>CVE-2019-15531</define-tag>
<define-tag packages>libextractor</define-tag>
<define-tag isvulnerable>yes</define-tag>
<define-tag fixed>yes</define-tag>
<define-tag fixed-section>no</define-tag>

#use wml::debian::security

